{
	"info": {
		"_postman_id": "33a55f03-eacc-457e-a039-c2db0cb5fb2d",
		"name": "Worlds Best App",
		"description": "API tests for the worlds best app",
		"schema": "https://schema.getpostman.com/json/collection/v2.1.0/collection.json"
	},
	"item": [
		{
			"name": "Login Success",
			"event": [
				{
					"listen": "test",
					"script": {
						"id": "b5da03b8-9fc9-483f-a464-d77aef4ff3b3",
						"type": "text/javascript",
						"exec": [
							"pm.test(\"the username is returned\", function () {",
							"    var jsonData = pm.response.json();",
							"    pm.expect(jsonData.data.username).to.eql('Dr I Test');",
							"});"
						]
					}
				}
			],
			"request": {
				"method": "POST",
				"header": [
					{
						"key": "Content-Type",
						"value": "application/json"
					}
				],
				"body": {
					"mode": "raw",
					"raw": "{\n\t\"email\": \"test@drugdev.com\",\n\t\"password\": \"supers3cret\"\n}"
				},
				"url": {
					"raw": "{{base_url}}/api/login",
					"host": [
						"{{base_url}}"
					],
					"path": [
						"api",
						"login"
					]
				},
				"description": "Create succesfully login request"
			},
			"response": []
		},
		{
			"name": "Login Error",
			"event": [
				{
					"listen": "test",
					"script": {
						"id": "ba24cfa5-4ee3-4b4d-8ae6-b6d7517e6948",
						"exec": [
							"pm.test(\"Status code is 401\", function () {",
							"    pm.response.to.have.status(401);",
							"});",
							"pm.test(\"return an array of errors\", function () {",
							"    var jsonData = pm.response.json();",
							"    pm.expect(jsonData.errors).to.be.an('array');",
							" });",
							"",
							"pm.test(\"return an first error title is 'Credentials are incorrect' \", function () {",
							"    var jsonData = pm.response.json();",
							" pm.expect((jsonData.errors[0].title)== 'Credentials are incorrect');",
							"});",
							""
						],
						"type": "text/javascript"
					}
				}
			],
			"request": {
				"auth": {
					"type": "basic",
					"basic": [
						{
							"key": "password",
							"value": "supers3cret",
							"type": "string"
						},
						{
							"key": "username",
							"value": "test@drugdev.com",
							"type": "string"
						}
					]
				},
				"method": "POST",
				"header": [
					{
						"key": "Content-Type",
						"value": "application/json"
					},
					{
						"warning": "This is a duplicate header and will be overridden by the Authorization header generated by Postman.",
						"key": "Authorization",
						"value": "",
						"type": "text",
						"disabled": true
					},
					{
						"key": "",
						"value": "",
						"type": "text",
						"disabled": true
					}
				],
				"body": {
					"mode": "raw",
					"raw": "{\n\t\"email\": \"admin@domain.com\",\n\t\"password\": \"super53cret\"\n}"
				},
				"url": {
					"raw": "{{base_url}}/api/login",
					"host": [
						"{{base_url}}"
					],
					"path": [
						"api",
						"login"
					]
				},
				"description": "Create error login request"
			},
			"response": []
		}
	],
	"protocolProfileBehavior": {}
}